fcbc_sr_v1
…
5
irrigation
irrigation

35
irrigation
general_fw

35
irrigation
irrigation

Fisheries

## # A tibble: 195 x 3
##       id use_type   enviroOutcome_type
##    <int> <chr>      <chr>             
##  1    28 irrigation general_fw        
##  2    28 irrigation fw_bodiversity    
##  3    28 irrigation irrigation        
##  4    28 irrigation fisheries         
##  5    28 irrigation terrestrial       
##  6    59 irrigation general_fw        
##  7    59 irrigation fw_bodiversity    
##  8    59 irrigation irrigation        
##  9    59 irrigation fisheries         
## 10    59 irrigation terrestrial       
## 11     3 irrigation general_fw        
## 12     3 irrigation fw_bodiversity    
## 13     3 irrigation irrigation        
## 14     3 irrigation fisheries         
## 15     3 irrigation terrestrial       
## # ... with 180 more rows
